[{
  "question":"How many coconuts a swallow can carry?",
  "a": "None",
  "b": "1",
  "c": "2",
  "d": "3",
  "e": "which one?",
  "good": "e"
},
{
  "question":"Where The Holy Hand Grenade comes from?",
  "a": "Antioch",
  "b": "Pope`s shed",
  "c": "Holy Land",
  "d": "Unholy Land",
  "e": "Mazury",
  "good": "a"
},
  {
  "question":"If a women weights the same as a duck, or is made of wood, is she a witch?",
  "a": "Yes",
  "b": "No",
  "c": "Maybe",
  "d": "Depends on a duck",
  "e": "Depends on a woman",
  "good": "a"
}
]